{
  "navigation": {
    "name": "atlassian-sdk",
    "categories": [
      {
        "indexLinkTitle": "Latest updates",
        "name": "devguide",
        "subcategories": [
          {
            "name": "intro",
            "items": [
              {
                "title": "Set up the Atlassian Plugin SDK and build a project",
                "url": "/server/framework/atlassian-sdk/set-up-the-atlassian-plugin-sdk-and-build-a-project"
              },
              {
                "title": "Adding resources to your project",
                "url": "/server/framework/atlassian-sdk/adding-resources-to-your-project"
              },
              {
                "title": "Configuring the plugin descriptor",
                "url": "/server/framework/atlassian-sdk/configuring-the-plugin-descriptor"
              },
              {
                "title": "atlassian-plugin.xml element reference",
                "url": "/server/framework/atlassian-sdk/atlassian-plugin-xml-element-reference"
              },
              {
                "title": "Frequently used commands",
                "url":  "/server/framework/atlassian-sdk/frequently-used-commands"
              },
              {
                "title": "Atlassian JavaDoc",
                "url": "/server/framework/atlassian-sdk/atlassian-javadoc"
              }
            ],
            "title": "Introduction and basics",
            "expandAlways": true
          },
          {
            "name": "security",
            "items": [
              {
                "title": "REST and os_authType",
                "url": "/server/framework/atlassian-sdk/rest-and-os-authtype"
              }
            ],
            "title": "Security"
          },
          {
            "name": "guides",
            "items": [
              {
                "id": "tutorialsAndGuides",
                "title": "Tutorials and guides",
                "url": "/server/framework/atlassian-sdk/tutorials_and_guides"
              },
              {
                "title": "Tutorials",
                "url": "/server/framework/atlassian-sdk/tutorials"
              },
              {
                "title": "Writing and running plugin tests",
                "url": "/server/framework/atlassian-sdk/writing-and-running-plugin-tests"
              },
              {
                "groupItems": [
                  {
                    "title": "About SAL development",
                    "url": "/server/framework/atlassian-sdk/about-sal-development"
                  },
                  {
                    "title": "Adding SAL dependency",
                    "url": "/server/framework/atlassian-sdk/adding-sal-dependency"
                  },
                  {
                    "title": "SAL code samples",
                    "url": "/server/framework/atlassian-sdk/sal-code-samples"
                  },
                  {
                    "title": "SAL services",
                    "url": "/server/framework/atlassian-sdk/sal-services"
                  }
                ],
                "isGroup": true,
                "title": "Shared Access Layer",
                "url": "/server/framework/atlassian-sdk/shared-access-layer"
              }
            ],
            "title": "Learning"
          },
          {
            "name": "updates",
            "items": [
              {
                "groupItems": [
                  {
                    "title": "AMPS Latest",
                    "url": "/server/framework/atlassian-sdk/amps-6-3-21"
                  },
                  {
                    "title": "AMPS 6.3.20",
                    "url": "/server/framework/atlassian-sdk/amps-6-3-20"
                  },
                  {
                    "title": "AMPS 6.3.19",
                    "url": "/server/framework/atlassian-sdk/amps-6-3-19"
                  },
                  {
                    "title": "AMPS 6.3.18",
                    "url": "/server/framework/atlassian-sdk/amps-6-3-18"
                  },
                  {
                    "title": "AMPS 6.3.17",
                    "url": "/server/framework/atlassian-sdk/amps-6-3-17"
                  },
                  {
                    "title": "AMPS 6.3.16",
                    "url": "/server/framework/atlassian-sdk/amps-6-3-16"
                  },
                  {
                    "title": "AMPS 6.3.15",
                    "url": "/server/framework/atlassian-sdk/amps-6-3-15"
                  },
                  {
                    "title": "AMPS 6.3.14",
                    "url": "/server/framework/atlassian-sdk/amps-6-3-14"
                  },
                  {
                    "title": "AMPS 6.3.13",
                    "url": "/server/framework/atlassian-sdk/amps-6-3-13"
                  },
                  {
                    "title": "AMPS 6.3.12",
                    "url": "/server/framework/atlassian-sdk/amps-6-3-12"
                  },
                  {
                    "title": "AMPS 6.3.11",
                    "url": "/server/framework/atlassian-sdk/amps-6-3-11"
                  },
                  {
                    "title": "AMPS 6.3.10",
                    "url": "/server/framework/atlassian-sdk/amps-6-3-10"
                  },
                  {
                    "title": "AMPS 6.3.7",
                    "url": "/server/framework/atlassian-sdk/amps-6-3-7"
                  },
                  {
                    "title": "AMPS 6.3.6",
                    "url": "/server/framework/atlassian-sdk/amps-6-3-6"
                  },
                  {
                    "title": "AMPS 6.3.5",
                    "url": "/server/framework/atlassian-sdk/amps-6-3-5"
                  },
                  {
                    "title": "AMPS 6.3.4",
                    "url": "/server/framework/atlassian-sdk/amps-6-3-4"
                  },
                  {
                    "title": "AMPS 6.3.3",
                    "url": "/server/framework/atlassian-sdk/amps-6-3-3"
                  },
                  {
                    "title": "AMPS 6.3.2",
                    "url": "/server/framework/atlassian-sdk/amps-6-3-2"
                  },
                  {
                    "title": "AMPS 6.3.1",
                    "url": "/server/framework/atlassian-sdk/amps-6-3-1"
                  },
                  {
                    "title": "AMPS 6.3.0",
                    "url": "/server/framework/atlassian-sdk/amps-6-3-0"
                  }
                ],
                "isGroup": true,
                "title": "AMPS SDK release notes",
                "url": "/server/framework/atlassian-sdk/amps-sdk-release-notes"
              },
              {
                "groupItems": [
                  {
                    "title": "REST plugin 2.1 release notes",
                    "url": "/server/framework/atlassian-sdk/rest-plugin-2-1-release-notes"
                  },
                  {
                    "title": "REST plugin 2.2 release notes",
                    "url": "/server/framework/atlassian-sdk/rest-plugin-2-2-release-notes"
                  },
                  {
                    "title": "REST plugin 2.3 release notes",
                    "url": "/server/framework/atlassian-sdk/rest-plugin-2-3-release-notes"
                  }
                ],
                "isGroup": true,
                "title": "REST plugin release notes",
                "url": "/server/framework/atlassian-sdk/rest-plugin-release-notes"
              }
            ],
            "title": "Updates"
          },
          {
            "name": "faq",
            "items": [
              {
                "groupItems": [
                  {
                    "title": "Getting started tutorial FAQ",
                    "url": "/server/framework/atlassian-sdk/getting-started-tutorial-faq"
                  },
                  {
                    "title": "Plugin Framework FAQ",
                    "url": "/server/framework/atlassian-sdk/plugin-framework-faq"
                  },
                  {
                    "title": "Writing your first plugin FAQ",
                    "url": "/server/framework/atlassian-sdk/writing-your-first-plugin-faq"
                  }
                ],
                "isGroup": true,
                "title": "FAQ",
                "url": "/server/framework/atlassian-sdk/faq"
              },
              {
                "title": "Troubleshooting",
                "url": "/server/framework/atlassian-sdk/troubleshooting"
              }
            ],
            "title": "FAQ and troubleshooting"
          },
          {
            "name": "other",
            "items": [
              {
                "title": "Atlassian Marketplace",
                "url": "https://developer.atlassian.com/platform/marketplace/"
              },
              {
                "title": "Atlassian UI library",
                "url": "https://docs.atlassian.com/aui/"
              },
              {
                "title": "Design for Server",
                "url": "https://atlassian.design/server/"
              },
              {
                "title": "Server app licensing",
                "url": "https://developer.atlassian.com/platform/marketplace/server-app-licensing/"
              },
              {
                "title": "Advanced Topics",
                "url": "/server/framework/atlassian-sdk/advanced-topics"
              },
              {
                "title": "OSGi and Spring reference documents",
                "url": "/server/framework/atlassian-sdk/osgi-and-spring-reference-documents"
              },
              {
                "title": "Plugin Framework glossary",
                "url": "/server/framework/atlassian-sdk/plugin-framework-glossary"
              }
            ],
            "title": "Other considerations"
          }
        ],
        "title": "Guides",
        "url": "/server/framework/atlassian-sdk/"
      },
      {
        "name": "reference",
        "subcategories": [
          {
            "name": "modules",
            "items": [
              {
                "title": "Plugin modules",
                "url": "/server/framework/atlassian-sdk/plugin-modules"
              },
              {
                "title": "Component Import plugin module",
                "url": "/server/framework/atlassian-sdk/component-import-plugin-module"
              },
              {
                "title": "Component plugin module",
                "url": "/server/framework/atlassian-sdk/component-plugin-module"
              },
              {
                "title": "Module Type plugin module",
                "url": "/server/framework/atlassian-sdk/module-type-plugin-module"
              },
              {
                "title": "Plugin module Index",
                "url": "/server/framework/atlassian-sdk/plugin-module-index"
              },
              {
                "title": "REST plugin module",
                "url": "/server/framework/atlassian-sdk/rest-plugin-module"
              },
              {
                "title": "Servlet Context Listener plugin module",
                "url": "/server/framework/atlassian-sdk/servlet-context-listener-plugin-module"
              },
              {
                "title": "Servlet Context Parameter plugin module",
                "url": "/server/framework/atlassian-sdk/servlet-context-parameter-plugin-module"
              },
              {
                "title": "Servlet Filter plugin module",
                "url": "/server/framework/atlassian-sdk/servlet-filter-plugin-module"
              },
              {
                "title": "Servlet modules",
                "url": "/server/framework/atlassian-sdk/servlet-modules"
              },
              {
                "title": "Servlet plugin module",
                "url": "/server/framework/atlassian-sdk/servlet-plugin-module"
              },
              {
                "title": "Template Context Item plugin module",
                "url": "/server/framework/atlassian-sdk/template-context-item-plugin-module"
              },
              {
                "title": "Using the built-in plugin modules",
                "url": "/server/framework/atlassian-sdk/using-the-built-in-plugin-modules"
              },
              {
                "title": "Web Item plugin module",
                "url": "/server/framework/atlassian-sdk/web-item-plugin-module"
              },
              {
                "title": "Web Panel Renderer plugin module",
                "url": "/server/framework/atlassian-sdk/web-panel-renderer-plugin-module"
              },
              {
                "title": "Web Panel plugin module",
                "url": "/server/framework/atlassian-sdk/web-panel-plugin-module"
              },
              {
                "title": "Web Resource Transformer plugin module",
                "url": "/server/framework/atlassian-sdk/web-resource-transformer-plugin-module"
              },
              {
                "title": "Web Resource plugin module",
                "url": "/server/framework/atlassian-sdk/web-resource-plugin-module"
              },
              {
                "title": "Web Section plugin module",
                "url": "/server/framework/atlassian-sdk/web-section-plugin-module"
              }
            ],
            "title": "Modules",
            "expandAlways": true
          }
        ],
        "title": "Reference",
        "url": "/server/framework/atlassian-sdk/plugin-modules"
      },
      {
        "name": "help",
        "title": "Resources",
        "url": "/server/framework/atlassian-sdk/get-help/"
      }
    ],
    "title": "Atlassian SDK",
    "url": "/server/framework/atlassian-sdk/"
  },
  "index": {
    "products": {
      "headings": [
        {
          "name": "atlassian-sdk",
          "items": [
            {
              "title": "Sample Product",
              "url": "/server/framework/atlassian-sdk/products/sample/"
            }
          ],
          "title": "Atlassian SDK"
        }
      ]
    },
    "apis": {
      "headings": [
        {
          "name": "atlassian-sdk",
          "items": [
            {
              "title": "Sample API page",
              "url": "/server/framework/atlassian-sdk/apis/sample/"
            }
          ],
          "title": "Atlassian SDK"
        }
      ]
    },
    "services": {
      "headings": [
        {
          "name": "atlassian-sdk",
          "items": [
            {
              "title": "Getting Started with Atlassian SDK",
              "url": "/server/framework/atlassian-sdk/"
            }
          ],
          "title": "Atlassian SDK"
        }
      ]
    }
  }
}